<svg width="160" height="42" viewBox="0 0 160 42" fill="none" xmlns="http://www.w3.org/2000/svg">
<rect width="160" height="42" rx="21" fill="white" fill-opacity="0.08"/>
<path d="M41.6 14.04V28H38.8V18.92L35.06 28H32.94L29.18 18.92V28H26.38V14.04H29.56L34 24.42L38.44 14.04H41.6ZM55.4683 14.04L50.7483 23.14V28H47.9483V23.14L43.2083 14.04H46.3683L49.3683 20.42L52.3483 14.04H55.4683ZM80.5088 14.04L76.6088 28H73.3088L70.6888 18.06L67.9488 28L64.6688 28.02L60.9088 14.04H63.9088L66.3688 24.88L69.2088 14.04H72.3288L75.0088 24.82L77.4888 14.04H80.5088ZM88.817 28.14C87.5104 28.14 86.3104 27.8333 85.217 27.22C84.1237 26.6067 83.257 25.76 82.617 24.68C81.977 23.5867 81.657 22.3533 81.657 20.98C81.657 19.62 81.977 18.4 82.617 17.32C83.257 16.2267 84.1237 15.3733 85.217 14.76C86.3104 14.1467 87.5104 13.84 88.817 13.84C90.137 13.84 91.337 14.1467 92.417 14.76C93.5104 15.3733 94.3704 16.2267 94.997 17.32C95.637 18.4 95.957 19.62 95.957 20.98C95.957 22.3533 95.637 23.5867 94.997 24.68C94.3704 25.76 93.5104 26.6067 92.417 27.22C91.3237 27.8333 90.1237 28.14 88.817 28.14ZM88.817 25.64C89.657 25.64 90.397 25.4533 91.037 25.08C91.677 24.6933 92.177 24.1467 92.537 23.44C92.897 22.7333 93.077 21.9133 93.077 20.98C93.077 20.0467 92.897 19.2333 92.537 18.54C92.177 17.8333 91.677 17.2933 91.037 16.92C90.397 16.5467 89.657 16.36 88.817 16.36C87.977 16.36 87.2304 16.5467 86.577 16.92C85.937 17.2933 85.437 17.8333 85.077 18.54C84.717 19.2333 84.537 20.0467 84.537 20.98C84.537 21.9133 84.717 22.7333 85.077 23.44C85.437 24.1467 85.937 24.6933 86.577 25.08C87.2304 25.4533 87.977 25.64 88.817 25.64ZM105.24 28L102.16 22.56H100.84V28H98.0402V14.04H103.28C104.36 14.04 105.28 14.2333 106.04 14.62C106.8 14.9933 107.367 15.5067 107.74 16.16C108.127 16.8 108.32 17.52 108.32 18.32C108.32 19.24 108.053 20.0733 107.52 20.82C106.987 21.5533 106.193 22.06 105.14 22.34L108.48 28H105.24ZM100.84 20.46H103.18C103.94 20.46 104.507 20.28 104.88 19.92C105.253 19.5467 105.44 19.0333 105.44 18.38C105.44 17.74 105.253 17.2467 104.88 16.9C104.507 16.54 103.94 16.36 103.18 16.36H100.84V20.46ZM118.733 28L113.653 21.78V28H110.853V14.04H113.653V20.3L118.733 14.04H122.113L116.353 20.96L122.273 28H118.733ZM128.934 28.14C127.961 28.14 127.081 27.9733 126.294 27.64C125.521 27.3067 124.908 26.8267 124.454 26.2C124.001 25.5733 123.768 24.8333 123.754 23.98H126.754C126.794 24.5533 126.994 25.0067 127.354 25.34C127.728 25.6733 128.234 25.84 128.874 25.84C129.528 25.84 130.041 25.6867 130.414 25.38C130.788 25.06 130.974 24.6467 130.974 24.14C130.974 23.7267 130.848 23.3867 130.594 23.12C130.341 22.8533 130.021 22.6467 129.634 22.5C129.261 22.34 128.741 22.1667 128.074 21.98C127.168 21.7133 126.428 21.4533 125.854 21.2C125.294 20.9333 124.808 20.54 124.394 20.02C123.994 19.4867 123.794 18.78 123.794 17.9C123.794 17.0733 124.001 16.3533 124.414 15.74C124.828 15.1267 125.408 14.66 126.154 14.34C126.901 14.0067 127.754 13.84 128.714 13.84C130.154 13.84 131.321 14.1933 132.214 14.9C133.121 15.5933 133.621 16.5667 133.714 17.82H130.634C130.608 17.34 130.401 16.9467 130.014 16.64C129.641 16.32 129.141 16.16 128.514 16.16C127.968 16.16 127.528 16.3 127.194 16.58C126.874 16.86 126.714 17.2667 126.714 17.8C126.714 18.1733 126.834 18.4867 127.074 18.74C127.328 18.98 127.634 19.18 127.994 19.34C128.368 19.4867 128.888 19.66 129.554 19.86C130.461 20.1267 131.201 20.3933 131.774 20.66C132.348 20.9267 132.841 21.3267 133.254 21.86C133.668 22.3933 133.874 23.0933 133.874 23.96C133.874 24.7067 133.681 25.4 133.294 26.04C132.908 26.68 132.341 27.1933 131.594 27.58C130.848 27.9533 129.961 28.14 128.934 28.14Z" fill="#FFB742"/>
</svg>
